Place,Name,State,WeightClassKg,BodyweightKg,BirthDate,Age,Squat1Kg,Squat2Kg,Squat3Kg,Best3SquatKg,Bench1Kg,Bench2Kg,Bench3Kg,Best3BenchKg,Deadlift1Kg,Deadlift2Kg,Deadlift3Kg,Best3DeadliftKg,TotalKg,Squat4Kg,Bench4Kg,Deadlift4Kg,Event,Equipment,Sex,Division
1,Jordan Goldean,FL,52,50.4,,15,60,67.5,-72.5,67.5,45,47.5,-50,47.5,100,107.5,112.5,112.5,227.5,,,,SBD,Raw,F,Juniors 13-15
1,Anna Boettger,FL,60,57.6,,18,82.5,87.5,92.5,92.5,45,50,52.5,52.5,120,130,137.5,137.5,282.5,,,,SBD,Raw,F,Juniors 18-19
1,Gabriella Hoyt,FL,60,59.2,,20,112.5,120,127.5,127.5,60,65,70,70,125,137.5,147.5,147.5,345,,,,SBD,Raw,F,Juniors 20-23
2,Briana Negron,FL,60,57.8,,21,92.5,100,-102.5,100,47.5,57.5,-60,57.5,90,100,-105,100,257.5,,,,SBD,Raw,F,Juniors 20-23
1,Heather Sceiczina,FL,67.5,64.3,,16,87.5,95,100,100,45,47.5,50,50,105,112.5,117.5,117.5,267.5,,,,SBD,Raw,F,Juniors 16-17
1,Nicole Cerniuk,FL,67.5,63.8,,21,110,117.5,-125,117.5,72.5,77.5,-85,77.5,130,140,150,150,345,,,,SBD,Raw,F,Juniors 20-23
2,Cortlyn Raynes,FL,67.5,67.4,,23,85,87.5,90,90,62.5,67.5,70,70,130,135,137.5,137.5,297.5,,,,SBD,Raw,F,Juniors 20-23
1,Olivia Trasorras,FL,75,72.6,,20,145,155,162.5,162.5,87.5,92.5,97.5,97.5,187.5,202.5,212.5,212.5,472.5,,,,SBD,Raw,F,Juniors 20-23
2,Elizabeth Kroslak,FL,75,73.5,,20,102.5,112.5,-115,112.5,57.5,60,-62.5,60,122.5,135,-137.5,135,307.5,,,,SBD,Raw,F,Juniors 20-23
3,Autumn Defreitas,FL,75,69.4,,21,67.5,75,80,80,50,55,-60,55,82.5,97.5,105,105,240,,,,SBD,Raw,F,Juniors 20-23
4,Michele Williams,FL,75,72.4,,22,90,95,-102.5,95,40,-45,-45,40,92.5,-105,-105,92.5,227.5,,,,SBD,Raw,F,Juniors 20-23
1,Laila Moursi,FL,90+,98.9,,16,105,115,116,116,52.5,55,-57.5,55,125,140,145,145,316,,,,SBD,Raw,F,Juniors 16-17
1,Kimberly Roberts,FL,52,49.9,,49,70,82.5,-90,82.5,47.5,50,52.5,52.5,105,-120,-120,105,240,,,,SBD,Raw,F,Open
2,Jordan Goldean,FL,52,50.4,,15,60,67.5,-72.5,67.5,45,47.5,-50,47.5,100,107.5,112.5,112.5,227.5,,,,SBD,Raw,F,Open
1,Samantha Schepps,FL,56,55.9,,24,105,115,120,120,77.5,82.5,-85,82.5,145,155,-162.5,155,357.5,,,,SBD,Raw,F,Open
2,Olivia Gray,FL,56,53.6,,29,97.5,107.5,-110,107.5,57.5,62.5,-70,62.5,127.5,137.5,142.5,142.5,312.5,,,,SBD,Raw,F,Open
3,Tara Olson-King,FL,56,55.2,,33,105,110,115,115,55,-57.5,-60,55,127.5,-135,-135,127.5,297.5,,,,SBD,Raw,F,Open
1,Gabriella Hoyt,FL,60,59.2,,20,112.5,120,127.5,127.5,60,65,70,70,125,137.5,147.5,147.5,345,,,,SBD,Raw,F,Open
2,Alexandra Konstantinou,FL,60,59.4,,26,117.5,127.5,130,130,60,-67.5,-67.5,60,130,140,145,145,335,,,,SBD,Raw,F,Open
3,Minerva Islas,GA,60,58.6,,34,102.5,110,-115,110,-67.5,67.5,-72.5,67.5,132.5,140,-145,140,317.5,,,,SBD,Raw,F,Open
4,Janna Moretti,FL,60,59.6,,39,110,112.5,-117.5,112.5,67.5,75,,75,112.5,117.5,-125,117.5,305,,,,SBD,Raw,F,Open
5,Sonia Hernandez,FL,60,58.5,,40,92.5,102.5,-112.5,102.5,47.5,-52.5,52.5,52.5,107.5,115,-122.5,115,270,,,,SBD,Raw,F,Open
1,Kathryn Mabe,GA,67.5,67.4,,25,-132.5,132.5,145,145,72.5,77.5,82.5,82.5,142.5,152.5,165,165,392.5,,,,SBD,Raw,F,Open
2,Kara Drummond,FL,67.5,66.4,,26,120,-135,-135,120,62.5,-70,-70,62.5,122.5,147.5,160,160,342.5,,,,SBD,Raw,F,Open
3,Ashley Oberting,FL,67.5,66.1,,30,100,110,122.5,122.5,57.5,62.5,-65,62.5,127.5,140,150,150,335,,,,SBD,Raw,F,Open
4,Alexandria Toler,FL,67.5,66.3,,36,100,107.5,117.5,117.5,45,52.5,-55,52.5,120,137.5,142.5,142.5,312.5,,,,SBD,Raw,F,Open
5,Victoria Miller #1,FL,67.5,66.5,,28,100,107.5,110,110,55,60,65,65,125,132.5,-137.5,132.5,307.5,,,,SBD,Raw,F,Open
6,Gina Fajcakova,FL,67.5,65.9,,29,-97.5,97.5,107.5,107.5,50,52.5,55,55,102.5,110,117.5,117.5,280,,,,SBD,Raw,F,Open
7,Alissa Liggett,FL,67.5,66.4,,31,67.5,72.5,-80,72.5,35,37.5,-45,37.5,77.5,87.5,92.5,92.5,202.5,,,,SBD,Raw,F,Open
DQ,Emily Sparks,FL,67.5,65.4,,36,122.5,-127.5,-132.5,122.5,-72.5,-72.5,-72.5,,,,,,,,,,SBD,Raw,F,Open
1,Olivia Trasorras,FL,75,72.6,,20,145,155,162.5,162.5,87.5,92.5,97.5,97.5,187.5,202.5,212.5,212.5,472.5,,,,SBD,Raw,F,Open
2,Andrea King,FL,75,72,,34,-155,162.5,175,175,82.5,92.5,-95,92.5,185,192.5,-197.5,192.5,460,177.5,,,SBD,Raw,F,Open
3,Julianne Durante,FL,75,74.8,,27,132.5,-145,145,145,90,-97.5,-97.5,90,190,-207.5,-207.5,190,425,,,,SBD,Raw,F,Open
4,Jenelle Ayala,FL,75,75,,28,107.5,120,-132.5,120,62.5,70,75,75,122.5,130,137.5,137.5,332.5,,,,SBD,Raw,F,Open
DQ,Katie Henry,FL,75,69.1,,31,102.5,-105,-105,102.5,-52.5,-57.5,-57.5,,115,117.5,120,120,,,,,SBD,Raw,F,Open
1,Sarah Lanzillo,FL,82.5,76.5,,31,185,197.5,-215,197.5,97.5,107.5,-115,107.5,187.5,200,212.5,212.5,517.5,,,,SBD,Raw,F,Open
2,Samantha Kempink,FL,82.5,81.3,,28,107.5,112.5,115,115,55,57.5,60,60,130,137.5,142.5,142.5,317.5,,,,SBD,Raw,F,Open
3,Kristin Hertweck,FL,82.5,80.9,,29,95,107.5,-115,107.5,45,52.5,-60,52.5,120,132.5,142.5,142.5,302.5,,,,SBD,Raw,F,Open
DQ,Catherine Greise,FL,82.5,79.7,,25,82.5,90,-95,90,57.5,-60,-60,57.5,,,,,,,,,SBD,Raw,F,Open
1,Shontavia House,FL,90,86.1,,27,-155,155,170,170,100,110,-120,110,185,200,212.5,212.5,492.5,,,,SBD,Raw,F,Open
2,Carolyn Hill,FL,90,89.4,,36,-117.5,130,142.5,142.5,70,77.5,-85,77.5,132.5,145,150,150,370,,,,SBD,Raw,F,Open
3,Kristin Truman,FL,90,88.4,,30,117.5,125,-137.5,125,72.5,-77.5,-77.5,72.5,127.5,137.5,142.5,142.5,340,,,,SBD,Raw,F,Open
1,Sarah Jackson,FL,90+,95.1,,27,190,202.5,215,215,95,100,-107.5,100,195,210,-227.5,210,525,,,,SBD,Raw,F,Open
2,Rachel Ilic,FL,90+,120,,29,175,187.5,195,195,90,95,-102.5,95,185,-195,195,195,485,,,,SBD,Raw,F,Open
3,Faith Foggy,GA,90+,105.5,,31,157.5,170,180,180,-95,97.5,100,100,160,182.5,187.5,187.5,467.5,,,,SBD,Raw,F,Open
4,Chelsea White,GA,90+,115.3,,28,165,172.5,180,180,87.5,95,-97.5,95,147.5,170,-175,170,445,,,,SBD,Raw,F,Open
5,Mary Howard-Groce,FL,90+,115.3,,26,-130,135,145,145,77.5,82.5,-85,82.5,135,140,152.5,152.5,380,,,,SBD,Raw,F,Open
6,Alexandra Posada,FL,90+,96.1,,25,115,120,-127.5,120,60,62.5,-70,62.5,135,142.5,155,155,337.5,,,,SBD,Raw,F,Open
1,Janna Moretti,FL,60,59.6,,39,110,112.5,-117.5,112.5,67.5,75,,75,112.5,117.5,-125,117.5,305,,,,SBD,Raw,F,Submasters 35-39
1,Ashlee Montalvo,FL,67.5,65,,35,95,102.5,110,110,57.5,62.5,-65,62.5,135,150,155.5,155.5,328,,,,SBD,Raw,F,Submasters 35-39
2,Alexandria Toler,FL,67.5,66.3,,36,100,107.5,117.5,117.5,45,52.5,-55,52.5,120,137.5,142.5,142.5,312.5,,,,SBD,Raw,F,Submasters 35-39
3,Hattie Attebery,FL,67.5,66.7,,39,97.5,-105,-105,97.5,55,-57.5,-57.5,55,137.5,140,-142.5,140,292.5,,,,SBD,Raw,F,Submasters 35-39
DQ,Emily Sparks,FL,67.5,65.4,,36,122.5,-127.5,-132.5,122.5,-72.5,-72.5,-72.5,,,,,,,,,,SBD,Raw,F,Submasters 35-39
1,Kimberly Roberts,FL,52,49.9,,49,70,82.5,-90,82.5,47.5,50,52.5,52.5,105,-120,-120,105,240,,,,SBD,Raw,F,Masters 45-49
1,Dana McFarlane,FL,56,54.3,,54,82.5,90,92.5,92.5,50,55,-60,55,110,125,-137.5,125,272.5,,,,SBD,Raw,F,Masters 50-54
1,Sonia Hernandez,FL,60,58.5,,40,92.5,102.5,-112.5,102.5,47.5,-52.5,52.5,52.5,107.5,115,-122.5,115,270,,,,SBD,Raw,F,Masters 40-44
DQ,Victoria Primeau,FL,75,71.2,,40,137.5,140,-145,140,-85,-90,-90,,150,152.5,157.5,157.5,,,,,SBD,Raw,F,Masters 40-44
1,Kristine Timmes,FL,82.5,80,,45,72.5,77.5,82.5,82.5,45,-47.5,-47.5,45,122.5,130,-137.5,130,257.5,,,,SBD,Raw,F,Masters 45-49
1,Cindy Wagner,FL,82.5,75.8,,61,-60,60,67.5,67.5,-35,37.5,40,40,80,-95,-95,80,187.5,,,,SBD,Raw,F,Masters 60-64
1,Jayne Batten,FL,90,87.8,,54,155,160,165,165,72.5,75,-77.5,75,155,165,170,170,410,,,,SBD,Raw,F,Masters 50-54
1,Gerard Digdigan,FL,60,60,,21,165,-177.5,180,180,105,110,117.5,117.5,202.5,217.5,-235,217.5,515,,,,SBD,Raw,M,Juniors 20-23
1,Anthony Dunn,FL,67.5,66.6,,15,-160,160,170,170,-110,110,-115,110,150,160,-170,160,440,,,,SBD,Raw,M,Juniors 13-15
1,Nahuel Cabrera,FL,67.5,64.3,,17,125,135,137.5,137.5,72.5,75,77.5,77.5,142.5,155,167.5,167.5,382.5,,,,SBD,Raw,M,Juniors 16-17
1,Kyle Hartzell,FL,67.5,67.3,,22,152.5,162.5,182.5,182.5,115,-120,125,125,207.5,217.5,230,230,537.5,,,,SBD,Raw,M,Juniors 20-23
2,Brendan Chen,FL,67.5,66.7,,22,-147.5,150,-160,150,75,80,-82.5,80,157.5,167.5,-175,167.5,397.5,,,,SBD,Raw,M,Juniors 20-23
1,Dylan Campani,FL,75,74,,17,155,165,-172.5,165,110,115,-117.5,115,170,175,182.5,182.5,462.5,,,,SBD,Raw,M,Juniors 16-17
1,Hunter Weaver,FL,75,69.9,,18,182.5,195,205,205,117.5,125,-130,125,205,225,235,235,565,,,,SBD,Raw,M,Juniors 18-19
2,Nathan Heburn,FL,75,73.9,,19,150,162.5,-170,162.5,110,117.5,122.5,122.5,175,195,205,205,490,,,,SBD,Raw,M,Juniors 18-19
3,Jake Kamins,FL,75,74.2,,19,127.5,-135,135,135,92.5,97.5,100,100,147.5,152.5,162.5,162.5,397.5,,,,SBD,Raw,M,Juniors 18-19
1,Larry Nguyen,FL,75,74.4,,20,192.5,202.5,210,210,115,117.5,-125,117.5,237.5,250,-260,250,577.5,,,,SBD,Raw,M,Juniors 20-23
2,Sam Rakoski,FL,75,73.8,,21,152.5,162.5,-172.5,162.5,115,122.5,132.5,132.5,180,190,-200,190,485,,,,SBD,Raw,M,Juniors 20-23
3,Sandi Not,FL,75,73.3,,22,130,142.5,150,150,87.5,95,100,100,180,190,200,200,450,,,,SBD,Raw,M,Juniors 20-23
4,Alexander Vongvenekeo,FL,75,73.8,,22,142.5,155,-157.5,155,97.5,102.5,-105,102.5,165,175,185,185,442.5,,,,SBD,Raw,M,Juniors 20-23
1,Joey Hopper,FL,82.5,80.3,,17,175,182.5,187.5,187.5,-137.5,142.5,-150,142.5,197.5,215,-222.5,215,545,,,,SBD,Raw,M,Juniors 16-17
2,Hayden Mayes,FL,82.5,80.4,,17,127.5,135,142.5,142.5,80,87.5,92.5,92.5,147.5,165,-182.5,165,400,,,,SBD,Raw,M,Juniors 16-17
1,Chris Rios,FL,82.5,81.6,,18,175,180,182.5,182.5,-125,130,-137.5,130,250,260,-267.5,260,572.5,,,,SBD,Raw,M,Juniors 18-19
1,John Carr,FL,82.5,81.1,,20,205,-215,215,215,140,145,147.5,147.5,260,272.5,277.5,277.5,640,,,,SBD,Raw,M,Juniors 20-23
2,Geoffrey Boettjer,FL,82.5,81.7,,22,200,217.5,-227.5,217.5,170,187.5,-195,187.5,207.5,-227.5,227.5,227.5,632.5,,,,SBD,Raw,M,Juniors 20-23
3,Trevor Bechtel,FL,82.5,82.5,,20,180,185,-195,185,102.5,-105,-110,102.5,192.5,207.5,-212.5,207.5,495,,,,SBD,Raw,M,Juniors 20-23
1,Bernad Ramirez,FL,90,89.6,,17,175,-192.5,-192.5,175,92.5,105,115,115,160,182.5,200,200,490,,,,SBD,Raw,M,Juniors 16-17
1,Dean Simon,FL,90,86.6,,22,237.5,242.5,252.5,252.5,145,150,-162.5,150,-285,290,303,303,705.5,,,,SBD,Raw,M,Juniors 20-23
2,Robert Yoakam,FL,90,88.7,,21,217.5,225,235,235,185,192.5,197.5,197.5,252.5,267.5,-272.5,267.5,700,,,,SBD,Raw,M,Juniors 20-23
3,Kenny Wayne Jenkins,FL,90,89.5,,23,220,-225,227.5,227.5,185,195,200,200,220,230,245,245,672.5,,,,SBD,Raw,M,Juniors 20-23
4,Thomas Moschner,FL,90,89.3,,23,210,225,232.5,232.5,150,160,-165,160,260,277.5,-282.5,277.5,670,,,,SBD,Raw,M,Juniors 20-23
5,Billy Werner,FL,90,87.5,,21,205,215,-225,215,137.5,-140,-140,137.5,227.5,242.5,250,250,602.5,,,,SBD,Raw,M,Juniors 20-23
6,Thomas Stephens,FL,90,87,,20,155,170,177.5,177.5,110,117.5,-122.5,117.5,160,175,-182.5,175,470,,,,SBD,Raw,M,Juniors 20-23
1,Zayne Barry,FL,100,97.3,,18,205,215,-230,215,140,152.5,155,155,185,-200,-210,185,555,,,,SBD,Raw,M,Juniors 18-19
1,Dharic Lagrandeur,FL,100,97.6,,23,212.5,227.5,240,240,140,150,157.5,157.5,275,292.5,307.5,307.5,705,,,,SBD,Raw,M,Juniors 20-23
2,John Kamp,FL,100,98.5,,20,180,-195,202.5,202.5,112.5,125,137.5,137.5,247.5,272.5,-290,272.5,612.5,,,,SBD,Raw,M,Juniors 20-23
3,Ryan Untersee,FL,100,96.2,,20,182.5,197.5,205,205,130,140,-152.5,140,217.5,237.5,-250,237.5,582.5,,,,SBD,Raw,M,Juniors 20-23
4,Jacob Newman,FL,100,94.5,,22,150,160,170,170,105,110,-112.5,110,175,187.5,195,195,475,,,,SBD,Raw,M,Juniors 20-23
1,Hunter Pitts,FL,110,107.9,,19,227.5,252.5,-260,252.5,165,-170,-170,165,255,272.5,285,285,702.5,,,,SBD,Raw,M,Juniors 18-19
2,Brandon Leinbach,FL,110,104,,18,142.5,150,155,155,100,-105,-105,100,175,-185,190,190,445,,,,SBD,Raw,M,Juniors 18-19
1,Logan Lubinski,FL,110,107.7,,22,235,-247.5,260,260,165,175,-182.5,175,250,262.5,275,275,710,,,,SBD,Raw,M,Juniors 20-23
2,Robert Wesley,NY,110,107.6,,20,235,255,-272.5,255,145,155,165,165,240,260,270,270,690,,,,SBD,Raw,M,Juniors 20-23
1,Steven Zhao,FL,125,122.1,,18,237.5,250,260,260,167.5,177.5,182.5,182.5,255,270,285,285,727.5,,,,SBD,Raw,M,Juniors 18-19
1,Vsevolod Kylyvnyk,FL,125,124.6,,20,227.5,-237.5,,227.5,145,157.5,-165,157.5,270,-295,,270,655,,,,SBD,Raw,M,Juniors 20-23
2,Mason Guillaume,FL,125,112.4,,22,170,180,190,190,125,-135,140,140,205,220,227.5,227.5,557.5,,,,SBD,Raw,M,Juniors 20-23
3,Robert Blecshchmidt,FL,125,122,,23,145,155,165,165,97.5,107.5,117.5,117.5,190,205,220,220,502.5,,,,SBD,Raw,M,Juniors 20-23
1,Jonah Mele,FL,140,127.6,,20,-220,220,240,240,215,227.5,-235,227.5,200,227.5,250,250,717.5,,,,SBD,Raw,M,Juniors 20-23
1,Gerard Digdigan,FL,60,60,,21,165,-177.5,180,180,105,110,117.5,117.5,202.5,217.5,-235,217.5,515,,,,SBD,Raw,M,Open
1,Richard Gaskins,FL,67.5,66.8,,41,170,185,192.5,192.5,100,110,115,115,202.5,215,-222.5,215,522.5,,,,SBD,Raw,M,Open
2,Brendan Chen,FL,67.5,66.7,,22,-147.5,150,-160,150,75,80,-82.5,80,157.5,167.5,-175,167.5,397.5,,,,SBD,Raw,M,Open
3,Nahuel Cabrera,FL,67.5,64.3,,17,125,135,137.5,137.5,72.5,75,77.5,77.5,142.5,155,167.5,167.5,382.5,,,,SBD,Raw,M,Open
4,Mitch Maple,IN,67.5,63.5,,24,85,-92.5,-92.5,85,42.5,50,55,55,135,147.5,160,160,300,,,,SBD,Raw,M,Open
1,Thong La,FL,75,74.8,,26,202.5,215,222.5,222.5,127.5,132.5,-135,132.5,222.5,240,255,255,610,,,,SBD,Raw,M,Open
2,Brandon Bartlett,FL,75,75,,24,182.5,195,-200,195,132.5,-142.5,-142.5,132.5,235,252.5,260,260,587.5,,,,SBD,Raw,M,Open
3,Larry Nguyen,FL,75,74.4,,20,192.5,202.5,210,210,115,117.5,-125,117.5,237.5,250,-260,250,577.5,,,,SBD,Raw,M,Open
4,Jake Gottesman,FL,75,71.9,,25,180,195,200,200,137.5,142.5,-150,142.5,210,227.5,-240,227.5,570,,,,SBD,Raw,M,Open
5,Hunter Weaver,FL,75,69.9,,18,182.5,195,205,205,117.5,125,-130,125,205,225,235,235,565,,,,SBD,Raw,M,Open
6,Jordan-Klein Barnett,FL,75,73.9,,26,187.5,195,-205,195,150,-157.5,-157.5,150,205,215,220,220,565,,,,SBD,Raw,M,Open
7,Christopher Gai,FL,75,74.6,,26,157.5,172.5,-185,172.5,97.5,105,110,110,200,210,-220,210,492.5,,,,SBD,Raw,M,Open
8,Dylan Campani,FL,75,74,,17,155,165,-172.5,165,110,115,-117.5,115,170,175,182.5,182.5,462.5,,,,SBD,Raw,M,Open
1,Zachary Parker,FL,82.5,81.8,,28,217.5,235,250,250,140,150,-152.5,150,-282.5,297.5,310,310,710,,,,SBD,Raw,M,Open
2,John Carr,FL,82.5,81.1,,20,205,-215,215,215,140,145,147.5,147.5,260,272.5,277.5,277.5,640,,,,SBD,Raw,M,Open
3,CJ Dellaria,FL,82.5,82,,47,205,217.5,232.5,232.5,140,147.5,-152.5,147.5,245,-255,-255,245,625,,,,SBD,Raw,M,Open
4,Richard Brown #1,FL,82.5,81.8,,27,222.5,230,232.5,232.5,147.5,155,160,160,222.5,230,-237.5,230,622.5,,,,SBD,Raw,M,Open
5,Joey Hopper,FL,82.5,80.3,,17,175,182.5,187.5,187.5,-137.5,142.5,-150,142.5,197.5,215,-222.5,215,545,,,,SBD,Raw,M,Open
6,Viktor Velez Davila,FL,82.5,80.9,,31,195,-215,-215,195,107.5,120,-142.5,120,207.5,215,225,225,540,,,,SBD,Raw,M,Open
7,Charles Jackson Jr,FL,82.5,79.8,,28,162.5,-175,-175,162.5,120,-132.5,-132.5,120,190,210,-215,210,492.5,,,,SBD,Raw,M,Open
8,Chris Crissman,FL,82.5,82.1,,39,170,177.5,182.5,182.5,-105,107.5,112.5,112.5,175,180,182.5,182.5,477.5,,,,SBD,Raw,M,Open
1,Chris Joslyn,TX,90,89.7,,33,260,272.5,280,280,165,177.5,-182.5,177.5,302.5,-317.5,-317.5,302.5,760,,,,SBD,Raw,M,Open
2,Robert Yoakam,FL,90,88.7,,21,217.5,225,235,235,185,192.5,197.5,197.5,252.5,267.5,-272.5,267.5,700,,,,SBD,Raw,M,Open
3,Thomas Moschner,FL,90,89.3,,23,210,225,232.5,232.5,150,160,-165,160,260,277.5,-282.5,277.5,670,,,,SBD,Raw,M,Open
4,Miguel Velez,FL,90,88.7,,26,215,235,242.5,242.5,137.5,147.5,155,155,240,267.5,-275,267.5,665,,,,SBD,Raw,M,Open
5,Jonathan Feil,FL,90,89.5,,32,210,222.5,-235,222.5,147.5,157.5,165,165,245,265,-277.5,265,652.5,,,,SBD,Raw,M,Open
6,Tony Rodgers,FL,90,85,,30,220,-237.5,-237.5,220,167.5,172.5,-175,172.5,220,227.5,,227.5,620,,,,SBD,Raw,M,Open
7,Billy Werner,FL,90,87.5,,21,205,215,-225,215,137.5,-140,-140,137.5,227.5,242.5,250,250,602.5,,,,SBD,Raw,M,Open
8,Jesse Shelton,FL,90,89.6,,32,167.5,185,195,195,140,147.5,150,150,210,220,227.5,227.5,572.5,,,,SBD,Raw,M,Open
9,Rei Gomes,FL,90,85.8,,34,182.5,197.5,200,200,87.5,-95,-95,87.5,210,225,235,235,522.5,,,,SBD,Raw,M,Open
10,Lance Morris,FL,90,90,,27,135,-142.5,150,150,125,130,-137.5,130,222.5,232.5,240,240,520,,,,SBD,Raw,M,Open
11,Ryan Vernick,FL,90,88.1,,25,160,170,-175,170,90,95,100,100,167.5,185,-200,185,455,,,,SBD,Raw,M,Open
1,Colton Collins,GA,100,99.4,,26,250,267.5,275,275,172.5,180,185,185,255,272.5,287.5,287.5,747.5,,,,SBD,Raw,M,Open
2,Kyle Mishler,FL,100,95.6,,32,220,230,237.5,237.5,150,165,175,175,295,322.5,-327.5,322.5,735,,,,SBD,Raw,M,Open
3,Jorge Guevara,FL,100,96.1,,28,220,235,250,250,127.5,137.5,145,145,215,230,245,245,640,,,,SBD,Raw,M,Open
4,Jacob Bastian,FL,100,99.2,,38,192.5,205,-227.5,205,160,171.5,-180.5,171.5,240,250,262.5,262.5,639,,,,SBD,Raw,M,Open
5,John Kamp,FL,100,98.5,,20,180,-195,202.5,202.5,112.5,125,137.5,137.5,247.5,272.5,-290,272.5,612.5,,,,SBD,Raw,M,Open
6,Michael Guidotti,FL,100,98.7,,36,190,200,-207.5,200,142.5,160,-167.5,160,235,242.5,-255,242.5,602.5,,,,SBD,Raw,M,Open
7,Justin Halog,FL,100,95,,30,205,-220,220,220,-125,125,-130,125,215,230,240,240,585,,,,SBD,Raw,M,Open
8,Mathew Truman,FL,100,98.8,,32,197.5,205,-217.5,205,-127.5,127.5,-132.5,127.5,242.5,-255,-255,242.5,575,,,,SBD,Raw,M,Open
9,Logan Chamberlin,FL,100,94.4,,28,195,205,-215,205,120,125,-130,125,210,227.5,237.5,237.5,567.5,,,,SBD,Raw,M,Open
10,David McNall,FL,100,99.4,,25,210,217.5,227.5,227.5,117.5,-122.5,-130,117.5,205,-222.5,-222.5,205,550,,,,SBD,Raw,M,Open
11,Joshua Willis,FL,100,99.4,,31,175,182.5,-187.5,182.5,130,135,-137.5,135,207.5,220,222.5,222.5,540,,,,SBD,Raw,M,Open
12,Paul Macak,FL,100,92,,26,135,145,157.5,157.5,130,137.5,142.5,142.5,185,195,200,200,500,,,,SBD,Raw,M,Open
13,Thomas Chakos,FL,100,92.2,,33,160,-172.5,-172.5,160,95,105,110,110,205,217.5,230,230,500,,,,SBD,Raw,M,Open
14,Logan Peterson,FL,100,98.1,,25,152.5,162.5,-167.5,162.5,120,125,-135,125,175,190,202.5,202.5,490,,,,SBD,Raw,M,Open
1,Ryan Conley,FL,110,108.6,,29,277.5,-297.5,-310,277.5,172.5,185,-190,185,285,310,332.5,332.5,795,,,,SBD,Raw,M,Open
2,Shane Tumminello,FL,110,110,,31,230,250,260,260,192.5,200,205,205,250,260,270,270,735,,,,SBD,Raw,M,Open
3,Hunter Pitts,FL,110,107.9,,19,227.5,252.5,-260,252.5,165,-170,-170,165,255,272.5,285,285,702.5,,,,SBD,Raw,M,Open
4,Charlton Reiner,FL,110,106.2,,30,240,245,252.5,252.5,182.5,192.5,-195,192.5,230,242.5,-255,242.5,687.5,,,,SBD,Raw,M,Open
5,Doug Daugherty,FL,110,108.6,,29,222.5,237.5,-250,237.5,145,155,165,165,240,255,-265,255,657.5,,,,SBD,Raw,M,Open
6,Austin Burdick,FL,110,108.7,,33,-197.5,-197.5,200,200,157.5,-162.5,-162.5,157.5,250,262.5,-275,262.5,620,,,,SBD,Raw,M,Open
7,Ryan Waterbury,FL,110,103.7,,31,187.5,207.5,-217.5,207.5,130,140,-145,140,232.5,250,,250,597.5,,,,SBD,Raw,M,Open
DQ,Kyle Pollard,FL,110,108.3,,29,-175,-185,-185,,130,-135,-135,130,182.5,195,202.5,202.5,,,,,SBD,Raw,M,Open
1,Brent Larson,FL,125,123.6,,27,320,335,,335,210,220,227.5,227.5,345,357.5,-365,357.5,920,,,,SBD,Raw,M,Open
2,Scott Schofield,FL,125,123.6,,29,275,290,300,300,170,177.5,185,185,265,280,285,285,770,,,,SBD,Raw,M,Open
3,Steven Zhao,FL,125,122.1,,18,237.5,250,260,260,167.5,177.5,182.5,182.5,255,270,285,285,727.5,,,,SBD,Raw,M,Open
4,Kyle O'Leary,FL,125,123.6,,27,237.5,250,265,265,170,-182.5,,170,272.5,292.5,-305,292.5,727.5,,,,SBD,Raw,M,Open
5,Willis Hertweck,FL,125,119.9,,28,-240,240,252.5,252.5,150,-160,160,160,240,-257.5,-257.5,240,652.5,,,,SBD,Raw,M,Open
6,John Roberts #1,FL,125,124.3,,28,205,-212.5,-217.5,205,137.5,147.5,152.5,152.5,272.5,285,295,295,652.5,,,,SBD,Raw,M,Open
7,Nathaniel Korpusik,GA,125,115,,38,192.5,195,197.5,197.5,175,187.5,-197.5,187.5,205,230,-250,230,615,,,,SBD,Raw,M,Open
8,Chris Kaczmarsky,FL,125,120.2,,34,170,185,195,195,-105,110,-112.5,110,207.5,227.5,235,235,540,,,,SBD,Raw,M,Open
9,Robert Blecshchmidt,FL,125,122,,23,145,155,165,165,97.5,107.5,117.5,117.5,190,205,220,220,502.5,,,,SBD,Raw,M,Open
10,Dustin Polk,FL,125,120.7,,29,137.5,145,155,155,95,102.5,107.5,107.5,192.5,210,227.5,227.5,490,,,,SBD,Raw,M,Open
DQ,Matt Sohmer,NY,125,119,,26,382.5,-412.5,,382.5,,,,,,,,,,,,,SBD,Raw,M,Open
1,Jonah Mele,FL,140,127.6,,20,-220,220,240,240,215,227.5,-235,227.5,200,227.5,250,250,717.5,,,,SBD,Raw,M,Open
1,Tone Mcdonald,FL,140+,150.8,,36,-250,265,275,275,-182.5,200,210,210,250,257.5,267.5,267.5,752.5,,,,SBD,Raw,M,Open
1,George Manganaro,FL,90,89.2,,38,167.5,175,182.5,182.5,112.5,122.5,127.5,127.5,190,197.5,202.5,202.5,512.5,,,,SBD,Raw,M,Submasters 35-39
1,Jacob Bastian,FL,100,99.2,,38,192.5,205,-227.5,205,160,171.5,-180.5,171.5,240,250,262.5,262.5,639,,,,SBD,Raw,M,Submasters 35-39
2,Michael Guidotti,FL,100,98.7,,36,190,200,-207.5,200,142.5,160,-167.5,160,235,242.5,-255,242.5,602.5,,,,SBD,Raw,M,Submasters 35-39
3,Bradley Short,FL,100,97.1,,36,190,200,210,210,-135,145,150,150,205,240,-250,240,600,,,,SBD,Raw,M,Submasters 35-39
4,Thomas Boccia,FL,100,99.1,,39,170,185,205,205,130,140,147.5,147.5,-227.5,227.5,247.5,247.5,600,,,,SBD,Raw,M,Submasters 35-39
5,Erick Rodriguez,FL,100,97.4,,38,-207.5,207.5,,207.5,167.5,172.5,180,180,65,,,65,452.5,,,,SBD,Raw,M,Submasters 35-39
DQ,Ryan Dayton,FL,100,99.7,,35,-220,-220,-220,,120,125,-130,125,227.5,240,250,250,,,,,SBD,Raw,M,Submasters 35-39
1,Jason Bloom,FL,110,108,,38,222.5,247.5,-265,247.5,170,185,192.5,192.5,247.5,272.5,285,285,725,,,,SBD,Raw,M,Submasters 35-39
1,David Banther,FL,125,124.2,,37,222.5,232.5,237.5,237.5,182.5,192.5,200,200,262.5,267.5,272.5,272.5,710,,,,SBD,Raw,M,Submasters 35-39
2,Nathaniel Korpusik,GA,125,115,,38,192.5,195,197.5,197.5,175,187.5,-197.5,187.5,205,230,-250,230,615,,,,SBD,Raw,M,Submasters 35-39
1,Tone Mcdonald,FL,140+,150.8,,36,-250,265,275,275,-182.5,200,210,210,250,257.5,267.5,267.5,752.5,,,,SBD,Raw,M,Submasters 35-39
1,Richard Gaskins,FL,67.5,66.8,,41,170,185,192.5,192.5,100,110,115,115,202.5,215,-222.5,215,522.5,,,,SBD,Raw,M,Masters 40-44
1,Lenny Uptagraft,FL,75,74.1,,47,-120,120,127.5,127.5,97.5,107.5,110,110,135,150,162.5,162.5,400,,,,SBD,Raw,M,Masters 45-49
1,Richard Gaskins,FL,75,71.1,,70,67.5,-75,-85,67.5,80,-85,85,85,95,105,115,115,267.5,,,,SBD,Raw,M,Masters 70-74
1,CJ Dellaria,FL,82.5,82,,47,205,217.5,232.5,232.5,140,147.5,-152.5,147.5,245,-255,-255,245,625,,,,SBD,Raw,M,Masters 45-49
DQ,Roger Shaw,FL,82.5,77,,75,-150,-152.5,-157.5,,82.5,90,95,95,177.5,190,197.5,197.5,,,97.5,,SBD,Raw,M,Masters 75-79
1,Paul Frese,GA,90,89.8,,50,202.5,210,217.5,217.5,140,145,150,150,230,235,240,240,607.5,,,,SBD,Raw,M,Masters 50-54
1,Wayne Hubers,FL,100,95.3,,40,195.5,205,-220,205,-142.5,142.5,,142.5,277.5,288,-300,288,635.5,,,,SBD,Raw,M,Masters 40-44
1,Erik Heitter,FL,110,102.7,,46,182.5,-190,192.5,192.5,165,-177.5,-177.5,165,227.5,237.5,-245,237.5,595,,,,SBD,Raw,M,Masters 45-49
1,Steven Vanderplas,FL,110,106.1,,60,122.5,-130,135,135,117.5,125,-127.5,125,172.5,182.5,187.5,187.5,447.5,,,,SBD,Raw,M,Masters 60-64
1,Michael Mongeluzzo,FL,125,120,,51,147.5,157.5,165,165,-157.5,-157.5,157.5,157.5,165,175,185,185,507.5,,,,SBD,Raw,M,Masters 50-54
1,Sam Beckwith,FL,125,115.8,,55,260,275,285,285,197.5,210,222.5,222.5,270,295,302.5,302.5,810,,,,SBD,Raw,M,Masters 55-59
2,Scott Greise,FL,125,118.3,,58,85,105,-110,105,82.5,-95,-95,82.5,110,117.5,127.5,127.5,315,,,,SBD,Raw,M,Masters 55-59
1,Lily Burkhead,FL,67.5,65.9,,19,137.5,145,152.5,152.5,65,-70,70,70,160,-172.5,,160,382.5,,,,SBD,Wraps,F,Juniors 18-19
1,Cheyenne Delano,FL,67.5,64.7,,22,100,107.5,112.5,112.5,60,-65,-65,60,120,127.5,137.5,137.5,310,,,,SBD,Wraps,F,Juniors 20-23
1,Elizabeth Blouir,FL,52,51.1,,29,87.5,95,-102.5,95,47.5,52.5,55,55,102.5,117.5,122.5,122.5,272.5,,,,SBD,Wraps,F,Open
1,Lily Burkhead,FL,67.5,65.9,,19,137.5,145,152.5,152.5,65,-70,70,70,160,-172.5,,160,382.5,,,,SBD,Wraps,F,Open
2,Krystal Schankowitz,FL,67.5,64.3,,36,137.5,150,157.5,157.5,60,65,67.5,67.5,137.5,147.5,155,155,380,,,,SBD,Wraps,F,Open
3,Thandazani Ndhlovu,FL,67.5,67,,31,-102.5,102.5,-107.5,102.5,62.5,-65,-65,62.5,140,142.5,147.5,147.5,312.5,,,,SBD,Wraps,F,Open
4,Katlynn Baker,FL,67.5,66.3,,24,105,115,122.5,122.5,55,62.5,-65,62.5,105,115,122.5,122.5,307.5,,,,SBD,Wraps,F,Open
1,Sara Smith #1,FL,75,68.6,,37,105,115,122.5,122.5,50,52.5,-57.5,52.5,140,150,155,155,330,,,,SBD,Wraps,F,Open
DQ,Tiffany Bent,FL,75,72,,26,185,-200,200,200,-97.5,-97.5,-97.5,,,,,,,,,,SBD,Wraps,F,Open
1,Anne Sheehan,FL,82.5,82.3,,46,187.5,202.5,-210,202.5,-112.5,120,-137.5,120,190,202.5,205,205,527.5,,,,SBD,Wraps,F,Open
2,Ayecia White,FL,82.5,82,,33,125,137.5,-140,137.5,62.5,65,70,70,140,145,152.5,152.5,360,,,,SBD,Wraps,F,Open
DQ,Christine Davis,FL,90,88.3,,42,170,-175,-175,170,90,92.5,-95,92.5,-180,-180,-180,,,,,,SBD,Wraps,F,Open
1,Lindsey Burke,FL,90+,101.9,,31,155,162.5,167.5,167.5,95,-103,-103,95,150,160,170,170,432.5,,,,SBD,Wraps,F,Open
1,Krystal Schankowitz,FL,67.5,64.3,,36,137.5,150,157.5,157.5,60,65,67.5,67.5,137.5,147.5,155,155,380,,,,SBD,Wraps,F,Submasters 35-39
2,Jennifer Ogle,FL,67.5,66.9,,38,82.5,97.5,-110,97.5,42.5,47.5,-52.5,47.5,125,137.5,-140,137.5,282.5,,,,SBD,Wraps,F,Submasters 35-39
1,Sara Smith #1,FL,75,68.6,,37,105,115,122.5,122.5,50,52.5,-57.5,52.5,140,150,155,155,330,,,,SBD,Wraps,F,Submasters 35-39
1,Anne Sheehan,FL,82.5,82.3,,46,187.5,202.5,-210,202.5,-112.5,120,-137.5,120,190,202.5,205,205,527.5,,,,SBD,Wraps,F,Masters 45-49
DQ,Christine Davis,FL,90,88.3,,42,170,-175,-175,170,90,92.5,-95,92.5,-180,-180,-180,,,,,,SBD,Wraps,F,Masters 40-44
1,Patrick Vandergriff,FL,75,74.9,,20,212.5,220,-230,220,105,112.5,120,120,200,210,215,215,555,,,,SBD,Wraps,M,Juniors 20-23
1,Joseph Reiss,FL,90,89.3,,22,185,-200,200,200,110,117.5,122.5,122.5,227.5,242.5,-250,242.5,565,,,,SBD,Wraps,M,Juniors 20-23
2,Seth Puckrin,FL,90,88.1,,23,177.5,182.5,-190,182.5,-132.5,132.5,-140,132.5,222.5,-242.5,-242.5,222.5,537.5,,,,SBD,Wraps,M,Juniors 20-23
1,Ryan Hackney,FL,110,107.9,,23,265,282.5,,282.5,170,182.5,192.5,192.5,287.5,307.5,327.5,327.5,802.5,,,,SBD,Wraps,M,Juniors 20-23
1,Kurt Jackson,FL,140,132.6,,20,302.5,317.5,332.5,332.5,197.5,210,,210,290,305,320,320,862.5,,,,SBD,Wraps,M,Juniors 20-23
1,Billy Phillips,FL,82.5,81.6,,49,220,232.5,243,243,145,152.5,157.5,157.5,225,242.5,252.5,252.5,653,,,,SBD,Wraps,M,Open
2,Jesus Garcia #13,FL,82.5,80.8,,26,180,202.5,227.5,227.5,105,125,127.5,127.5,192.5,215,232.5,232.5,587.5,,,,SBD,Wraps,M,Open
DQ,Matthew Koerber,FL,82.5,81.6,,31,-202.5,210,-217.5,210,-132.5,-132.5,-132.5,,225,240,250,250,,,,,SBD,Wraps,M,Open
1,Andres Hernandez,FL,90,90,,30,240,252.5,262.5,262.5,142.5,150,-155,150,237.5,255,272.5,272.5,685,,,,SBD,Wraps,M,Open
2,Shelby Lickliter,FL,90,89.2,,24,232.5,245,260,260,117.5,127.5,132.5,132.5,222.5,237.5,250,250,642.5,,,,SBD,Wraps,M,Open
3,Seth Puckrin,FL,90,88.1,,23,177.5,182.5,-190,182.5,-132.5,132.5,-140,132.5,222.5,-242.5,-242.5,222.5,537.5,,,,SBD,Wraps,M,Open
4,Geoffrey Smith,FL,90,88.8,,33,165,175,182.5,182.5,117.5,125,-132.5,125,-162.5,-162.5,162.5,162.5,470,,,,SBD,Wraps,M,Open
1,Frank D'Angelo,FL,100,99.5,,38,275,297.5,,297.5,165,185,205,205,285,305,-317.5,305,807.5,,,,SBD,Wraps,M,Open
2,Julian Hooks,FL,100,100,,32,267.5,287.5,-305,287.5,160,175,182.5,182.5,272.5,287.5,-297.5,287.5,757.5,,,,SBD,Wraps,M,Open
3,Michael DeStefano #1,FL,100,98.2,,35,260,275,282.5,282.5,182.5,-190,-190,182.5,265,275,282.5,282.5,747.5,,,,SBD,Wraps,M,Open
4,Michael Walker #2,FL,100,98.7,,30,232.5,247.5,260,260,187.5,200,-210,200,247.5,-272.5,272.5,272.5,732.5,,,,SBD,Wraps,M,Open
1,Ronnell Leftwich,GA,110,108.1,,31,320,340,352.5,352.5,200,210,215,215,327.5,345,362.5,362.5,930,,,,SBD,Wraps,M,Open
2,Hunter Dominy,FL,110,105,,25,325,-345,-357.5,325,142.5,-160,172.5,172.5,300,317.5,-325,317.5,815,,,,SBD,Wraps,M,Open
3,Tyler Courtney #1,FL,110,102.9,,30,245,260,272.5,272.5,175,185,195,195,245,260,-272.5,260,727.5,,,,SBD,Wraps,M,Open
4,Joseph Lopez #2,CO,110,106.7,,31,-247.5,257.5,272.5,272.5,147.5,-165,-175,147.5,-275,275,,275,695,,,,SBD,Wraps,M,Open
5,Calvin Gilyard,FL,110,110,,31,155,-187.5,-202.5,155,120,127.5,142.5,142.5,227.5,242.5,270,270,567.5,,,,SBD,Wraps,M,Open
1,Rodrigo Pulgarin,GA,125,123.4,,33,305,325,-337.5,325,185,192.5,197.5,197.5,295,320,-325,320,842.5,,,,SBD,Wraps,M,Open
2,Don Vining,FL,125,121.9,,34,295,310,317.5,317.5,-200,200,-212.5,200,-295,295,300,300,817.5,,,,SBD,Wraps,M,Open
3,Alex Rennie,GA,125,118.4,,27,265,280,285,285,192.5,202.5,207.5,207.5,275,290,300,300,792.5,,,,SBD,Wraps,M,Open
4,Sean Danner,FL,125,118.3,,30,282.5,295,-307.5,295,142.5,152.5,165,165,282.5,295,302.5,302.5,762.5,,,,SBD,Wraps,M,Open
5,Ryan Yarcho,FL,125,110.3,,33,230,242.5,250,250,145,155,-160,155,247.5,272.5,277.5,277.5,682.5,,,,SBD,Wraps,M,Open
1,Jeremiah Eaton,FL,140,139.3,,26,370,-400,400,400,-230,230,-240,230,-340,340,-372.5,340,970,,,,SBD,Wraps,M,Open
1,Michael DeStefano #1,FL,100,98.2,,35,260,275,282.5,282.5,182.5,-190,-190,182.5,265,275,282.5,282.5,747.5,,,,SBD,Wraps,M,Submasters 35-39
1,Martin Boetjer,FL,125,123.6,,36,157.5,165,170,170,110,112.5,-117.5,112.5,182.5,190,200,200,482.5,,,,SBD,Wraps,M,Submasters 35-39
1,Billy Phillips,FL,82.5,81.6,,49,220,232.5,243,243,145,152.5,157.5,157.5,225,242.5,252.5,252.5,653,,,,SBD,Wraps,M,Masters 45-49
1,Alfred Villoch,FL,90,90,,42,222.5,240,256,256,145,152.5,-157.5,152.5,265,277.5,-285,277.5,686,,,,SBD,Wraps,M,Masters 40-44
1,Judson Costas,FL,90,89.1,,60,155,160,162.5,162.5,120,127.5,135,135,170,182.5,192.5,192.5,490,,,,SBD,Wraps,M,Masters 60-64
1,Virgil Diaz,FL,100,100,,59,200,210,-215,210,105,110,112.5,112.5,195,222.5,237.5,237.5,560,,,,SBD,Wraps,M,Masters 55-59
1,Eddie Amaral,FL,110,107.2,,44,227.5,250,-260,250,175,182.5,-185,182.5,237.5,257.5,272.5,272.5,705,,,,SBD,Wraps,M,Masters 40-44
DQ,Ty Evans #1,FL,125,118,,42,242.5,255,-265,255,-160,-160,160,160,-295,-325,-325,,,,,,SBD,Wraps,M,Masters 40-44
DQ,Matthew Levine,FL,100,99.9,,32,315,-325,-325,315,-195,-195,-195,,,,,,,,,,SBD,Single-ply,M,Open
1,Eva Harshman,FL,60,59.6,,38,160,170,177.5,177.5,105,112.5,-117.5,112.5,160,170,-175,170,460,,,,SBD,Multi-ply,F,Open
1,Eva Harshman,FL,60,59.6,,38,160,170,177.5,177.5,105,112.5,-117.5,112.5,160,170,-175,170,460,,,,SBD,Multi-ply,F,Submasters 35-39
1,Derek Harshman,FL,110,103.1,,32,310,317.5,327.5,327.5,202.5,210,-220,210,272.5,-282.5,282.5,282.5,820,,,,SBD,Multi-ply,M,Open
1,Janna Moretti,FL,60,59.6,,39,,,,,67.5,75,,75,,,,,75,,,,B,Raw,F,Open
1,Samantha Henke,FL,75,69.5,,26,,,,,82.5,87.5,-90,87.5,,,,,87.5,,,,B,Raw,F,Open
1,Carolyn Hill,FL,90,89.4,,36,,,,,70,77.5,-85,77.5,,,,,77.5,,,,B,Raw,F,Open
1,Taylor Dalrymple,FL,90+,103.1,,26,,,,,45,50,52.5,52.5,,,,,52.5,,,,B,Raw,F,Open
2,Vaughan Debarr,FL,90+,106,,46,,,,,52.5,,,52.5,,,,,52.5,,,,B,Raw,F,Open
1,Janna Moretti,FL,60,59.6,,39,,,,,67.5,75,,75,,,,,75,,,,B,Raw,F,Submasters 35-39
1,Kenny Wayne Jenkins,FL,90,89.5,,23,,,,,185,195,200,200,,,,,200,,,,B,Raw,M,Juniors 20-23
1,Erwin Goscin,FL,67.5,66.1,,30,,,,,-112.5,115,122.5,122.5,,,,,122.5,,,,B,Raw,M,Open
1,Llalando Austin,FL,82.5,80.9,,40,,,,,160,182.5,187.5,187.5,,,,,187.5,,,,B,Raw,M,Open
1,Michael Walker #2,FL,100,98.7,,30,,,,,187.5,200,-210,200,,,,,200,,,,B,Raw,M,Open
1,Ian Hardin,FL,110,105.1,,34,,,,,155,172.5,185,185,,,,,185,,,,B,Raw,M,Open
2,George Boldissar,FL,110,109.2,,62,,,,,-170,180,-183,180,,,,,180,,,,B,Raw,M,Open
1,Don Vining,FL,125,121.9,,34,,,,,-200,200,-212.5,200,,,,,200,,,,B,Raw,M,Open
2,Nathaniel Korpusik,GA,125,115,,38,,,,,175,187.5,-197.5,187.5,,,,,187.5,,,,B,Raw,M,Open
1,Nathaniel Korpusik,GA,125,115,,38,,,,,175,187.5,-197.5,187.5,,,,,187.5,,,,B,Raw,M,Submasters 35-39
1,Lenny Uptagraft,FL,75,74.1,,47,,,,,97.5,107.5,110,110,,,,,110,,,,B,Raw,M,Masters 45-49
1,Llalando Austin,FL,82.5,80.9,,40,,,,,160,182.5,187.5,187.5,,,,,187.5,,,,B,Raw,M,Masters 40-44
1,Louis Tilchin,FL,82.5,81.6,,55,,,,,130,138,140,140,,,,,140,,,,B,Raw,M,Masters 55-59
1,Scott Heburn,FL,90,85.1,,52,,,,,135,142.5,150,150,,,,,150,,,,B,Raw,M,Masters 50-54
DQ,Brian Hart,FL,90,88.6,,63,,,,,-155,-155,-155,,,,,,,,,,B,Raw,M,Masters 60-64
1,Armando Hernandez,FL,100,98.4,,70,,,,,-130,-130,141,141,,,,,141,,145,,B,Raw,M,Masters 70-74
1,Erik Heitter,FL,110,102.7,,46,,,,,165,-177.5,-177.5,165,,,,,165,,,,B,Raw,M,Masters 45-49
1,George Boldissar,FL,110,109.2,,62,,,,,-170,180,-183,180,,,,,180,,,,B,Raw,M,Masters 60-64
1,Sam Beckwith,FL,125,115.8,,55,,,,,197.5,210,222.5,222.5,,,,,222.5,,,,B,Raw,M,Masters 55-59
1,Andy Bernt,FL,140+,156.3,,58,,,,,125,130,-135,130,,,,,130,,,,B,Raw,M,Masters 55-59
1,Nikolai Voigts,FL,52,47.8,,25,,,,,142.5,-152.5,152.5,152.5,,,,,152.5,,,,B,Single-ply,M,Open
1,Ayecia White,FL,82.5,82,,33,,,,,,,,,140,145,152.5,152.5,152.5,,,,D,Raw,F,Open
2,Samantha Kempink,FL,82.5,81.3,1991-08-15,28,,,,,,,,,130,137.5,142.5,142.5,142.5,,,,D,Raw,F,Open
1,Adam Fennell,FL,90,83.5,,24,,,,,,,,,-195,202.5,210,210,210,,,,D,Raw,M,Open
1,Kyle Mishler,FL,100,95.6,,32,,,,,,,,,295,322.5,-327.5,322.5,322.5,,,,D,Raw,M,Open
1,Lenny Uptagraft,FL,75,74.1,,47,,,,,,,,,135,150,162.5,162.5,162.5,,,,D,Raw,M,Masters 45-49
1,Sam Beckwith,FL,125,115.8,,55,,,,,,,,,270,295,302.5,302.5,302.5,,,,D,Raw,M,Masters 55-59
1,Aaron Heburn,FL,75,75,,18,,,,,97.5,-102.5,-105,97.5,167.5,-180,180,180,277.5,,,,BD,Raw,M,Juniors 18-19
1,Daniel Lewis #4,FL,110,109.4,,27,,,,,100,-105,-105,100,132.5,142.5,152.5,152.5,252.5,,,,BD,Raw,M,Open
1,Cole Mcallister,FL,125,116.3,,25,,,,,140,145,-150,145,265,275,280,280,425,,,,BD,Raw,M,Open
1,Charles McIntosh,FL,110,106.4,,42,,,,,152.5,-157.5,157.5,157.5,205,220,227.5,227.5,385,,,,BD,Raw,M,Masters 40-44
1,Erik Heitter,FL,110,102.7,,46,,,,,165,-177.5,-177.5,165,227.5,237.5,-245,237.5,402.5,,,,BD,Raw,M,Masters 45-49
1,Dan Adovasio,FL,140,127.7,,70,,,,,50,55,-60,55,-142.5,145,152.5,152.5,207.5,,,160,BD,Raw,M,Masters 70-74
