Place,Name,Team,BodyweightKg,Best3SquatKg,Best3BenchKg,Best3DeadliftKg,TotalKg,Division,Sex,WeightClassKg,Equipment,Event,BirthDate
1,Carl Johansson,Falkenbergs KSK,73.55,250.00,167.50,300.00,717.50,Juniors,M,74,Raw,SBD,
1,Yulong Li,Vedum AIS,91.20,300.00,200.00,312.50,812.50,Juniors,M,93,Raw,SBD,
3,Anton Wasser,Sundsvalls AK,118.40,332.50,205.00,300.00,837.50,Juniors,M,120,Raw,SBD,
3,Ida-Therese Lindeberg,Täby AK,56.45,147.50,85.00,185.00,417.50,Juniors,F,57,Raw,SBD,
2,Alba Boström,Öjeby AK,62.05,157.50,120.00,195.00,472.50,Juniors,F,63,Raw,SBD,
3,Agnes Rudin,Lunds TK,68.90,177.50,110.00,190.00,477.50,Juniors,F,69,Raw,SBD,
2,Vilma Olsson,Hallsbergs AK,73.55,202.50,120.00,202.50,525.00,Juniors,F,76,Raw,SBD,
